module gitlab.com/PatrickDomnick/gin-vals

go 1.17

require (
	github.com/gin-gonic/gin v1.7.7
	github.com/variantdev/vals v0.16.0
)

require (
	cloud.google.com/go v0.81.0 // indirect
	cloud.google.com/go/storage v1.15.0 // indirect
	filippo.io/age v1.0.0-beta7 // indirect
	github.com/Azure/azure-pipeline-go v0.2.3 // indirect
	github.com/Azure/azure-sdk-for-go v56.2.0+incompatible // indirect
	github.com/Azure/azure-storage-blob-go v0.14.0 // indirect
	github.com/Azure/go-autorest v14.2.0+incompatible // indirect
	github.com/Azure/go-autorest/autorest v0.11.19 // indirect
	github.com/Azure/go-autorest/autorest/adal v0.9.13 // indirect
	github.com/Azure/go-autorest/autorest/azure/auth v0.5.8 // indirect
	github.com/Azure/go-autorest/autorest/azure/cli v0.4.2 // indirect
	github.com/Azure/go-autorest/autorest/date v0.3.0 // indirect
	github.com/Azure/go-autorest/autorest/to v0.4.0 // indirect
	github.com/Azure/go-autorest/autorest/validation v0.3.1 // indirect
	github.com/Azure/go-autorest/logger v0.2.1 // indirect
	github.com/Azure/go-autorest/tracing v0.6.0 // indirect
	github.com/alecthomas/participle v0.4.2-0.20191220090139-9fbceec1d131 // indirect
	github.com/aws/aws-sdk-go v1.40.28 // indirect
	github.com/blang/semver v3.5.1+incompatible // indirect
	github.com/dimchansky/utfbom v1.1.1 // indirect
	github.com/fatih/color v1.9.0 // indirect
	github.com/form3tech-oss/jwt-go v3.2.2+incompatible // indirect
	github.com/fujiwara/tfstate-lookup v0.4.2 // indirect
	github.com/gin-contrib/sse v0.1.0 // indirect
	github.com/go-playground/locales v0.14.0 // indirect
	github.com/go-playground/universal-translator v0.18.0 // indirect
	github.com/go-playground/validator/v10 v10.10.1 // indirect
	github.com/golang/groupcache v0.0.0-20200121045136-8c9f03a8e57e // indirect
	github.com/golang/protobuf v1.5.2 // indirect
	github.com/golang/snappy v0.0.1 // indirect
	github.com/google/go-cmp v0.5.5 // indirect
	github.com/google/go-querystring v1.0.0 // indirect
	github.com/google/uuid v1.2.0 // indirect
	github.com/googleapis/gax-go/v2 v2.0.5 // indirect
	github.com/goware/prefixer v0.0.0-20160118172347-395022866408 // indirect
	github.com/hashicorp/errwrap v1.0.0 // indirect
	github.com/hashicorp/go-cleanhttp v0.5.1 // indirect
	github.com/hashicorp/go-multierror v1.0.0 // indirect
	github.com/hashicorp/go-retryablehttp v0.5.4 // indirect
	github.com/hashicorp/go-rootcerts v1.0.1 // indirect
	github.com/hashicorp/go-slug v0.7.0 // indirect
	github.com/hashicorp/go-sockaddr v1.0.2 // indirect
	github.com/hashicorp/go-tfe v0.17.1 // indirect
	github.com/hashicorp/golang-lru v0.5.4 // indirect
	github.com/hashicorp/hcl v1.0.0 // indirect
	github.com/hashicorp/jsonapi v0.0.0-20210518035559-1e50d74c8db3 // indirect
	github.com/hashicorp/vault/api v1.0.4 // indirect
	github.com/hashicorp/vault/sdk v0.1.14-0.20200215224050-f6547fa8e820 // indirect
	github.com/howeyc/gopass v0.0.0-20170109162249-bf9dde6d0d2c // indirect
	github.com/itchyny/gojq v0.9.0 // indirect
	github.com/jmespath/go-jmespath v0.4.0 // indirect
	github.com/json-iterator/go v1.1.12 // indirect
	github.com/jstemmer/go-junit-report v0.9.1 // indirect
	github.com/leodido/go-urn v1.2.1 // indirect
	github.com/lestrrat-go/strftime v1.0.1 // indirect
	github.com/lib/pq v1.2.0 // indirect
	github.com/mattn/go-colorable v0.1.8 // indirect
	github.com/mattn/go-ieproxy v0.0.1 // indirect
	github.com/mattn/go-isatty v0.0.14 // indirect
	github.com/mitchellh/go-homedir v1.1.0 // indirect
	github.com/mitchellh/go-wordwrap v1.0.0 // indirect
	github.com/mitchellh/mapstructure v1.1.2 // indirect
	github.com/modern-go/concurrent v0.0.0-20180306012644-bacd9c7ef1dd // indirect
	github.com/modern-go/reflect2 v1.0.2 // indirect
	github.com/pbnjay/strptime v0.0.0-20140226051138-5c05b0d668c9 // indirect
	github.com/pierrec/lz4 v2.0.5+incompatible // indirect
	github.com/pkg/errors v0.9.1 // indirect
	github.com/ryanuber/go-glob v1.0.0 // indirect
	github.com/sergi/go-diff v1.1.0 // indirect
	github.com/sirupsen/logrus v1.7.0 // indirect
	github.com/ugorji/go/codec v1.2.7 // indirect
	go.mozilla.org/gopgagent v0.0.0-20170926210634-4d7ea76ff71a // indirect
	go.mozilla.org/sops/v3 v3.7.1 // indirect
	go.opencensus.io v0.23.0 // indirect
	golang.org/x/crypto v0.0.0-20220408190544-5352b0902921 // indirect
	golang.org/x/lint v0.0.0-20201208152925-83fdc39ff7b5 // indirect
	golang.org/x/mod v0.4.1 // indirect
	golang.org/x/net v0.0.0-20211112202133-69e39bad7dc2 // indirect
	golang.org/x/oauth2 v0.0.0-20210413134643-5e61552d6c78 // indirect
	golang.org/x/sys v0.0.0-20220408201424-a24fb2fb8a0f // indirect
	golang.org/x/term v0.0.0-20201126162022-7de9c90e9dd1 // indirect
	golang.org/x/text v0.3.7 // indirect
	golang.org/x/time v0.0.0-20191024005414-555d28b269f0 // indirect
	golang.org/x/tools v0.1.0 // indirect
	golang.org/x/xerrors v0.0.0-20200804184101-5ec99f83aff1 // indirect
	google.golang.org/api v0.45.0 // indirect
	google.golang.org/appengine v1.6.7 // indirect
	google.golang.org/genproto v0.0.0-20210420162539-3c870d7478d2 // indirect
	google.golang.org/grpc v1.37.0 // indirect
	google.golang.org/protobuf v1.28.0 // indirect
	gopkg.in/ini.v1 v1.51.0 // indirect
	gopkg.in/square/go-jose.v2 v2.3.1 // indirect
	gopkg.in/urfave/cli.v1 v1.20.0 // indirect
	gopkg.in/yaml.v2 v2.4.0 // indirect
	gopkg.in/yaml.v3 v3.0.0-20210107192922-496545a6307b // indirect
)
